<svg xmlns="http://www.w3.org/2000/svg" xmlns:xlink="http://www.w3.org/1999/xlink" xml:space="preserve"
     version="1.1"
     style="shape-rendering:geometricPrecision;text-rendering:geometricPrecision;image-rendering:optimizeQuality;"
     viewBox="0 0 847 847" x="0px" y="0px" fill-rule="evenodd" clip-rule="evenodd"><defs></defs>
    <g><polygon class="fil0" points="668,407 94,404 93,449 658,449 500,607 535,642 754,424 753,423 719,389 535,204 500,239 "></polygon></g></svg>